Chapter 3 Part 2: Understanding Your Country’s Geographic Structure | AFLEARN Introduction to R using ICAN-ICAR 2025 Survey Data
…
For trainees: You should see only ONE country name when you run this code. That’s expected - you’re analyzing your country’s data.

3.2 Geographic Structure

# Check the first-level administrative units
data_weighted %>%
  count(CountryName, Tier_One_Unit) %>%
  arrange(CountryName, desc(n))

## # A tibble: 267 × 3
##    CountryName Tier_One_Unit     n
##    <chr>       <chr>         <int>
##  1 Bangladesh  Dhaka          1343
##  2 Bangladesh  Chattogram     1108
##  3 Bangladesh  Khulna          913
##  4 Bangladesh  Rangpur         843
##  5 Bangladesh  Rajshahi        760
##  6 Bangladesh  Barishal        584
##  7 Bangladesh  Sylhet          469
##  8 Bangladesh  Mymensingh      459
##  9 Kenya       Nairobi City    218
## 10 Kenya       Kisii           213
## # ℹ 257 more rows
…
##  [1] "Mozambique" "Bangladesh" "Kenya"      "Mali"       "Mexico"    
##  [6] "Nicaragua"  "Nepal"      "Pakistan"   "Tanzania"   "Uganda"    
## [11] "Senegal"

# How many children in your country's sample?
nrow(data_weighted)

## [1] 89141

# What administrative regions does your sample cover?
data_weighted %>%
  count(Tier_One_Unit, name = "n_children") %>%
  arrange(desc(n_children))

## # A tibble: 267 × 2
##    Tier_One_Unit      n_children
##    <chr>                   <int>
##  1 Punjab                   4119
##  2 DAKAR                    2238
##  3 Noroeste                 2091
##  4 Sindh                    1951
##  5 DISTRICT DE BAMAKO       1742
##  6 Khyber Pakhtunkhwa       1704
##  7 SEGOU                    1511
##  8 Dhaka                    1343
##  9 Balochistan              1342
## 10 BOUGOUNI                 1267
## # ℹ 257 more rows
…
